[gd_scene load_steps=10 format=2]

[ext_resource path="res://src/UI/Button.gd" type="Script" id=1]
[ext_resource path="res://assets/models/button_frame.obj" type="ArrayMesh" id=2]

[sub_resource type="SpatialMaterial" id=1]

[sub_resource type="SpatialMaterial" id=2]
flags_transparent = true
flags_unshaded = true
params_cull_mode = 1
albedo_color = Color( 0, 0, 1, 0 )

[sub_resource type="CubeMesh" id=3]
material = SubResource( 2 )
size = Vector3( 1, 1, 1 )

[sub_resource type="Animation" id=4]
resource_name = "Press"
length = 0.3
step = 0.02
tracks/0/type = "value"
tracks/0/path = NodePath(".:rotation_degrees")
tracks/0/interp = 2
tracks/0/loop_wrap = true
tracks/0/imported = false
tracks/0/enabled = true
tracks/0/keys = {
"times": PoolRealArray( 0, 0.3 ),
"transitions": PoolRealArray( 1, 1 ),
"update": 0,
"values": [ Vector3( 0, 0, 0 ), Vector3( 0, 360, 0 ) ]
}

[sub_resource type="Animation" id=5]
length = 0.2
tracks/0/type = "value"
tracks/0/path = NodePath("Fill:mesh:material:albedo_color")
tracks/0/interp = 1
tracks/0/loop_wrap = true
tracks/0/imported = false
tracks/0/enabled = true
tracks/0/keys = {
"times": PoolRealArray( 0, 0.2 ),
"transitions": PoolRealArray( 1, 1 ),
"update": 0,
"values": [ Color( 0, 0, 1, 0 ), Color( 0, 0, 1, 1 ) ]
}

[sub_resource type="Animation" id=6]
length = 0.2
tracks/0/type = "value"
tracks/0/path = NodePath(".:scale")
tracks/0/interp = 1
tracks/0/loop_wrap = true
tracks/0/imported = false
tracks/0/enabled = true
tracks/0/keys = {
"times": PoolRealArray( 0, 0.2 ),
"transitions": PoolRealArray( 1, 1 ),
"update": 0,
"values": [ Vector3( 1, 1, 1 ), Vector3( 1.2, 1.2, 1.2 ) ]
}

[sub_resource type="BoxShape" id=7]
extents = Vector3( 0.5, 0.5, 0.5 )

[node name="Button" type="Area"]
collision_layer = 2
collision_mask = 0
script = ExtResource( 1 )

[node name="Frame" type="MeshInstance" parent="."]
material_override = SubResource( 1 )
mesh = ExtResource( 2 )
material/0 = null
material/1 = null
material/2 = null
material/3 = null
material/4 = null
material/5 = null
material/6 = null
material/7 = null

[node name="Fill" type="MeshInstance" parent="."]
mesh = SubResource( 3 )
material/0 = null

[node name="Anim" type="AnimationPlayer" parent="."]
anims/Press = SubResource( 4 )
anims/Toggle = SubResource( 5 )

[node name="HoverAnim" type="AnimationPlayer" parent="."]
anims/Hover = SubResource( 6 )

[node name="CollisionShape" type="CollisionShape" parent="."]
shape = SubResource( 7 )
