[gd_scene load_steps=7 format=2]

[ext_resource path="res://src/Controllers/LeftController.gd" type="Script" id=1]
[ext_resource path="res://src/Controllers/ColorPicker.tscn" type="PackedScene" id=2]
[ext_resource path="res://src/Controllers/ColorPickerH.tres" type="Material" id=3]
[ext_resource path="res://assets/colorwheel.obj" type="ArrayMesh" id=4]

[sub_resource type="SpatialMaterial" id=1]
flags_unshaded = true
albedo_color = Color( 1, 0, 0, 1 )

[sub_resource type="PrismMesh" id=2]
size = Vector3( 0.005, 0.005, 0.005 )

[node name="LeftController" type="ARVRController"]
controller_id = 1
script = ExtResource( 1 )

[node name="ColorPicker" parent="." instance=ExtResource( 2 )]

[node name="Touchpad" type="Spatial" parent="."]
transform = Transform( 1, 0, 0, 0, 1, 0, 0, 0, 1, 0, 0, 0.1 )

[node name="ColorWheel" type="MeshInstance" parent="Touchpad"]
transform = Transform( -8.74228e-10, 0.02, -8.74228e-10, 0, -8.74228e-10, -0.02, -0.02, -8.74228e-10, 3.82137e-17, 0, 0, 0 )
visible = false
material_override = ExtResource( 3 )
mesh = ExtResource( 4 )
material/0 = null

[node name="Indicator" type="Spatial" parent="Touchpad/ColorWheel"]
transform = Transform( -2.18557e-06, 0, -50, 1.31839e-13, 50, 4.54747e-13, 50, -4.17594e-21, -2.18557e-06, 0, 0, 0 )

[node name="Mesh" type="MeshInstance" parent="Touchpad/ColorWheel/Indicator"]
transform = Transform( -4.37114e-08, 4.37114e-08, 1, 1, 0, 4.37114e-08, 7.10543e-15, 1, -4.37114e-08, -4.44089e-16, 1.00536e-09, -0.023 )
material_override = SubResource( 1 )
mesh = SubResource( 2 )
material/0 = null
