[gd_scene load_steps=6 format=2]

[ext_resource path="res://src/Controllers/PaletteItem.gd" type="Script" id=1]

[sub_resource type="BoxShape" id=1]
extents = Vector3( 0.02, 0.02, 0.02 )

[sub_resource type="SpatialMaterial" id=2]
resource_local_to_scene = true

[sub_resource type="CubeMesh" id=3]
size = Vector3( 0.04, 0.04, 0.04 )

[sub_resource type="Animation" id=4]
length = 0.2
tracks/0/type = "value"
tracks/0/path = NodePath(".:scale")
tracks/0/interp = 1
tracks/0/loop_wrap = true
tracks/0/imported = false
tracks/0/enabled = true
tracks/0/keys = {
"times": PoolRealArray( 0, 0.2 ),
"transitions": PoolRealArray( 1, 1 ),
"update": 0,
"values": [ Vector3( 1, 1, 1 ), Vector3( 1.1, 1.1, 1.1 ) ]
}

[node name="PaletteItem" type="Area"]
collision_layer = 2
collision_mask = 0
script = ExtResource( 1 )

[node name="CollisionShape" type="CollisionShape" parent="."]
shape = SubResource( 1 )

[node name="Mesh" type="MeshInstance" parent="."]
material_override = SubResource( 2 )
mesh = SubResource( 3 )
material/0 = null

[node name="AnimationPlayer" type="AnimationPlayer" parent="."]
anims/Hover = SubResource( 4 )
